{
	"info": {
		"_postman_id": "96f04a2c-4659-47a0-9519-8ab869ae9c29",
		"name": "BankMangement",
		"schema": "https://schema.getpostman.com/json/collection/v2.1.0/collection.json"
	},
	"item": [
		{
			"name": "Admin",
			"item": [
				{
					"name": "AdminAuth",
					"event": [
						{
							"listen": "test",
							"script": {
								"id": "8d0aba75-8128-4a2a-aaf8-a023ea97d6ed",
								"exec": [
									"var jsonData = JSON.parse(responseBody);\r",
									"tests[\"Extract token\"] = jsonData.token\r",
									"\r",
									"\r",
									"\r",
									"postman.setEnvironmentVariable(\"token\", jsonData.token);"
								],
								"type": "text/javascript"
							}
						}
					],
					"request": {
						"method": "POST",
						"header": [],
						"body": {
							"mode": "raw",
							"raw": "{\r\n    \"email\":\"admin@admin.com\",\r\n    \"password\":\"123456\"\r\n}",
							"options": {
								"raw": {
									"language": "json"
								}
							}
						},
						"url": {
							"raw": "{{url}}/auth/admin",
							"host": [
								"{{url}}"
							],
							"path": [
								"auth",
								"admin"
							]
						}
					},
					"response": []
				},
				{
					"name": "CreateAdmin",
					"request": {
						"method": "POST",
						"header": [
							{
								"key": "token",
								"value": "{{token}}",
								"type": "text"
							}
						],
						"body": {
							"mode": "raw",
							"raw": "{\r\n    \"tckn\":\"38662014448\",\r\n    \"name\":\"tes2t\",\r\n    \"surname\":\"surname\",\r\n    \"email\":\"tes2t@test.com\",\r\n    \"password\":\"123456\"\r\n}",
							"options": {
								"raw": {
									"language": "json"
								}
							}
						},
						"url": {
							"raw": "{{url}}/admin",
							"host": [
								"{{url}}"
							],
							"path": [
								"admin"
							]
						}
					},
					"response": []
				},
				{
					"name": "GetAdmin",
					"protocolProfileBehavior": {
						"disableBodyPruning": true
					},
					"request": {
						"method": "GET",
						"header": [
							{
								"key": "token",
								"value": "{{token}}",
								"type": "text"
							}
						],
						"body": {
							"mode": "raw",
							"raw": "",
							"options": {
								"raw": {
									"language": "json"
								}
							}
						},
						"url": {
							"raw": "{{url}}/admin/5f877a181b53d14cccab39fe",
							"host": [
								"{{url}}"
							],
							"path": [
								"admin",
								"5f877a181b53d14cccab39fe"
							]
						}
					},
					"response": []
				},
				{
					"name": "GetAdmins",
					"protocolProfileBehavior": {
						"disableBodyPruning": true
					},
					"request": {
						"method": "GET",
						"header": [
							{
								"key": "token",
								"value": "{{token}}",
								"type": "text"
							}
						],
						"body": {
							"mode": "raw",
							"raw": "",
							"options": {
								"raw": {
									"language": "json"
								}
							}
						},
						"url": {
							"raw": "{{url}}/admin?pageSize=2&pageNumber=1",
							"host": [
								"{{url}}"
							],
							"path": [
								"admin"
							],
							"query": [
								{
									"key": "pageSize",
									"value": "2"
								},
								{
									"key": "pageNumber",
									"value": "1"
								}
							]
						}
					},
					"response": []
				},
				{
					"name": "DeleteAdmin",
					"request": {
						"method": "DELETE",
						"header": [
							{
								"key": "token",
								"value": "{{token}}",
								"type": "text"
							}
						],
						"body": {
							"mode": "raw",
							"raw": "",
							"options": {
								"raw": {
									"language": "json"
								}
							}
						},
						"url": {
							"raw": "{{url}}/admin/5f877da960f57d218084f584",
							"host": [
								"{{url}}"
							],
							"path": [
								"admin",
								"5f877da960f57d218084f584"
							]
						}
					},
					"response": []
				},
				{
					"name": "UpdateAdmin",
					"request": {
						"method": "PUT",
						"header": [
							{
								"key": "token",
								"value": "{{token}}",
								"type": "text"
							}
						],
						"body": {
							"mode": "raw",
							"raw": "{\r\n    \"name\":\"test\",\r\n    \"surname\":\"surname\",\r\n    \"email\":\"test@test.com\",\r\n    \"password\":\"123456\"\r\n}",
							"options": {
								"raw": {
									"language": "json"
								}
							}
						},
						"url": {
							"raw": "{{url}}/admin/5f877a181b53d14cccab39fe",
							"host": [
								"{{url}}"
							],
							"path": [
								"admin",
								"5f877a181b53d14cccab39fe"
							]
						}
					},
					"response": []
				},
				{
					"name": "CreateUser",
					"request": {
						"method": "POST",
						"header": [
							{
								"key": "token",
								"value": "{{token}}",
								"type": "text"
							}
						],
						"body": {
							"mode": "raw",
							"raw": "{\r\n    \"tckn\":\"38659014512\",\r\n    \"name\":\"test\",\r\n    \"surname\":\"surname\",\r\n    \"email\":\"test@test.com\",\r\n    \"password\":\"123456\"\r\n}",
							"options": {
								"raw": {
									"language": "json"
								}
							}
						},
						"url": {
							"raw": "{{url}}/user",
							"host": [
								"{{url}}"
							],
							"path": [
								"user"
							]
						}
					},
					"response": []
				},
				{
					"name": "GetUsers",
					"protocolProfileBehavior": {
						"disableBodyPruning": true
					},
					"request": {
						"method": "GET",
						"header": [
							{
								"key": "token",
								"value": "{{token}}",
								"type": "text"
							}
						],
						"body": {
							"mode": "raw",
							"raw": "",
							"options": {
								"raw": {
									"language": "json"
								}
							}
						},
						"url": {
							"raw": "{{url}}/user?pageSize=2&pageNumber=1",
							"host": [
								"{{url}}"
							],
							"path": [
								"user"
							],
							"query": [
								{
									"key": "pageSize",
									"value": "2"
								},
								{
									"key": "pageNumber",
									"value": "1"
								}
							]
						}
					},
					"response": []
				}
			],
			"protocolProfileBehavior": {}
		},
		{
			"name": "User",
			"item": [
				{
					"name": "AuthUser",
					"event": [
						{
							"listen": "test",
							"script": {
								"id": "da883ea9-0892-4d63-8649-b13a8f41fafc",
								"exec": [
									"var jsonData = JSON.parse(responseBody);\r",
									"tests[\"Extract token\"] = jsonData.token\r",
									"\r",
									"\r",
									"\r",
									"postman.setEnvironmentVariable(\"token\", jsonData.token);"
								],
								"type": "text/javascript"
							}
						}
					],
					"request": {
						"method": "POST",
						"header": [],
						"body": {
							"mode": "raw",
							"raw": "{\r\n    \"tckn\":\"38662014448\",\r\n    \"password\":\"123456\"\r\n}",
							"options": {
								"raw": {
									"language": "json"
								}
							}
						},
						"url": {
							"raw": "{{url}}/auth/user",
							"host": [
								"{{url}}"
							],
							"path": [
								"auth",
								"user"
							]
						}
					},
					"response": []
				}
			],
			"protocolProfileBehavior": {}
		},
		{
			"name": "Account",
			"item": [
				{
					"name": "Deposit",
					"request": {
						"method": "PUT",
						"header": [
							{
								"key": "token",
								"value": "{{token}}",
								"type": "text"
							}
						],
						"body": {
							"mode": "raw",
							"raw": "{\r\n    \"currency\":\"EUR\",\r\n    \"amount\":1000\r\n}",
							"options": {
								"raw": {
									"language": "json"
								}
							}
						},
						"url": {
							"raw": "{{url}}/user/account/5f8adc994afd426bcc7e064b/deposit",
							"host": [
								"{{url}}"
							],
							"path": [
								"user",
								"account",
								"5f8adc994afd426bcc7e064b",
								"deposit"
							]
						}
					},
					"response": []
				},
				{
					"name": "Transfer",
					"request": {
						"method": "PUT",
						"header": [
							{
								"key": "token",
								"value": "{{token}}",
								"type": "text"
							}
						],
						"body": {
							"mode": "raw",
							"raw": "{\r\n    \"currency\":\"EUR\",\r\n    \"amount\":10\r\n}",
							"options": {
								"raw": {
									"language": "json"
								}
							}
						},
						"url": {
							"raw": "{{url}}/user/account/5f8adc994afd426bcc7e064b/transfer/5f8aea665415b5076c2b6bb8",
							"host": [
								"{{url}}"
							],
							"path": [
								"user",
								"account",
								"5f8adc994afd426bcc7e064b",
								"transfer",
								"5f8aea665415b5076c2b6bb8"
							]
						}
					},
					"response": []
				},
				{
					"name": "Delete",
					"request": {
						"method": "DELETE",
						"header": [
							{
								"key": "token",
								"value": "{{token}}",
								"type": "text"
							}
						],
						"url": {
							"raw": "{{url}}/user/account/5f8966db06850a238079aaee",
							"host": [
								"{{url}}"
							],
							"path": [
								"user",
								"account",
								"5f8966db06850a238079aaee"
							]
						}
					},
					"response": []
				},
				{
					"name": "Get",
					"request": {
						"method": "GET",
						"header": [
							{
								"key": "token",
								"value": "{{token}}",
								"type": "text"
							}
						],
						"url": {
							"raw": "{{url}}/user/account/5f8adc994afd426bcc7e064b",
							"host": [
								"{{url}}"
							],
							"path": [
								"user",
								"account",
								"5f8adc994afd426bcc7e064b"
							]
						}
					},
					"response": []
				},
				{
					"name": "List",
					"event": [
						{
							"listen": "test",
							"script": {
								"id": "8f8771c9-deb5-45d8-9ad0-fdbfe484931d",
								"exec": [
									""
								],
								"type": "text/javascript"
							}
						}
					],
					"request": {
						"method": "GET",
						"header": [
							{
								"key": "token",
								"value": "{{token}}",
								"type": "text"
							}
						],
						"url": {
							"raw": "{{url}}/user/account",
							"host": [
								"{{url}}"
							],
							"path": [
								"user",
								"account"
							]
						}
					},
					"response": []
				},
				{
					"name": "Create",
					"event": [
						{
							"listen": "test",
							"script": {
								"id": "9b716970-fe82-4575-a5ee-36059b75ec15",
								"exec": [
									""
								],
								"type": "text/javascript"
							}
						}
					],
					"request": {
						"method": "POST",
						"header": [
							{
								"key": "token",
								"value": "{{token}}",
								"type": "text"
							}
						],
						"body": {
							"mode": "raw",
							"raw": "{\r\n    \"currency\":\"EUR\"\r\n}",
							"options": {
								"raw": {
									"language": "json"
								}
							}
						},
						"url": {
							"raw": "{{url}}/user/account",
							"host": [
								"{{url}}"
							],
							"path": [
								"user",
								"account"
							]
						}
					},
					"response": []
				},
				{
					"name": "Withdraw",
					"request": {
						"method": "PUT",
						"header": [
							{
								"key": "token",
								"value": "{{token}}",
								"type": "text"
							}
						],
						"body": {
							"mode": "raw",
							"raw": "{\r\n    \"currency\": \"EUR\",\r\n    \"amount\": 10\r\n}",
							"options": {
								"raw": {
									"language": "json"
								}
							}
						},
						"url": {
							"raw": "{{url}}/user/account/5f8adc994afd426bcc7e064b/withdraw",
							"host": [
								"{{url}}"
							],
							"path": [
								"user",
								"account",
								"5f8adc994afd426bcc7e064b",
								"withdraw"
							]
						}
					},
					"response": []
				}
			],
			"protocolProfileBehavior": {}
		}
	],
	"event": [
		{
			"listen": "prerequest",
			"script": {
				"id": "d1d76b9a-d0cf-4e1d-b200-a53b970e7d06",
				"type": "text/javascript",
				"exec": [
					""
				]
			}
		},
		{
			"listen": "test",
			"script": {
				"id": "ea3d9013-bb85-4c3a-b31f-fe721c0066ce",
				"type": "text/javascript",
				"exec": [
					""
				]
			}
		}
	],
	"protocolProfileBehavior": {}
}